[gd_scene load_steps=2 format=3 uid="uid://dx6jm3rk3fcgd"]

[ext_resource type="PackedScene" uid="uid://btodm5hk65gn2" path="res://objects/explosion/explosion_01.blend" id="1_cgcxu"]

[node name="explosion" type="Node3D"]

[node name="explosion_01" parent="." instance=ExtResource("1_cgcxu")]

[editable path="explosion_01"]
