[gd_scene load_steps=4 format=3 uid="uid://dqykcewwk24ul"]

[ext_resource type="Script" path="res://objects/powerups/splitter_missile/splitter_missile.gd" id="1_213qa"]
[ext_resource type="PackedScene" uid="uid://btsrd2e12aukb" path="res://objects/powerups/splitter_missile/gun.blend" id="1_kott2"]
[ext_resource type="PackedScene" uid="uid://c48wvmbt7mepm" path="res://objects/powerups/pole.tscn" id="2_gt0ur"]

[node name="splitter_missile" type="Node3D"]
transform = Transform3D(1, 0, 0, 0, 1, 0, 0, 0, 1, 0, -0.407236, 0)
script = ExtResource("1_213qa")

[node name="gun" parent="." instance=ExtResource("1_kott2")]
transform = Transform3D(1, 0, 0, 0, 1, 0, 0, 0, 1, 0, 1.42135, 0)

[node name="barrel" type="Node3D" parent="gun"]
transform = Transform3D(1, 0, 0, 0, 1, 0, 0, 0, 1, 0, 0, -1.63482)

[node name="pole" parent="." instance=ExtResource("2_gt0ur")]
