[gd_scene load_steps=5 format=3 uid="uid://svvjreydh3l7"]

[ext_resource type="Script" path="res://objects/powerups/box/power_up.gd" id="1_7vfaw"]
[ext_resource type="PackedScene" uid="uid://bf1wuyhiho4y" path="res://objects/powerups/box/question_box.blend" id="2_7aqnf"]
[ext_resource type="AudioStream" uid="uid://gwup0myxli80" path="res://objects/powerups/box/8-bit-powerup-6768.ogg" id="3_53c3k"]

[sub_resource type="BoxShape3D" id="BoxShape3D_fr540"]

[node name="power_up" type="Node3D"]
script = ExtResource("1_7vfaw")

[node name="question_box" parent="." instance=ExtResource("2_7aqnf")]
transform = Transform3D(0.5, 0, 0, 0, 0.5, 0, 0, 0, 0.5, 0, 0, 0)

[node name="Area3D" type="Area3D" parent="question_box"]

[node name="CollisionShape3D" type="CollisionShape3D" parent="question_box/Area3D"]
shape = SubResource("BoxShape3D_fr540")

[node name="collect" type="AudioStreamPlayer" parent="."]
stream = ExtResource("3_53c3k")

[node name="Reset_Timer" type="Timer" parent="."]
wait_time = 5.0
one_shot = true

[connection signal="body_entered" from="question_box/Area3D" to="." method="_on_area_3d_body_entered"]
[connection signal="timeout" from="Reset_Timer" to="." method="_on_reset_timer_timeout"]
