[gd_scene load_steps=2 format=3 uid="uid://bkxrc8spar2g4"]

[ext_resource type="Script" path="res://objects/camera/Camera3D.gd" id="1_3hauk"]

[node name="Camera3D" type="Camera3D" groups=["cameras"]]
transform = Transform3D(1, 0, 0, 0, 1, 0, 0, 0, 1, 0.873318, 3.21664, 10.836)
script = ExtResource("1_3hauk")
offset = Vector3(0, 3, 4)
